Pipe-Friendly Framework for Basic Statistical Tests • rstatix
…
# Correlation of one variable against all
mydata %>% cor_test(mpg, method = "pearson")
#> # A tibble: 5 x 8
#>   var1  var2    cor statistic        p conf.low conf.high method 
#>   <chr> <chr> <dbl>     <dbl>    <dbl>    <dbl>     <dbl> <chr>  
#> 1 mpg   disp  -0.85     -8.75 9.38e-10  -0.923     -0.708 Pearson
#> 2 mpg   hp    -0.78     -6.74 1.79e- 7  -0.885     -0.586 Pearson
#> 3 mpg   drat   0.68      5.10 1.78e- 5   0.436      0.832 Pearson
#> 4 mpg   wt    -0.87     -9.56 1.29e-10  -0.934     -0.744 Pearson
#> 5 mpg   qsec   0.42      2.53 1.71e- 2   0.0820     0.670 Pearson

# Pairwise correlation test between all variables
mydata %>% cor_test(method = "pearson")
#> # A tibble: 36 x 8
#>    var1  var2    cor statistic        p conf.low conf.high method 
#>    <chr> <chr> <dbl>     <dbl>    <dbl>    <dbl>     <dbl> <chr>  
#>  1 mpg   mpg    1       Inf    0.         1          1     Pearson
#>  2 mpg   disp  -0.85     -8.75 9.38e-10  -0.923     -0.708 Pearson
#>  3 mpg   hp    -0.78     -6.74 1.79e- 7  -0.885     -0.586 Pearson
#>  4 mpg   drat   0.68      5.10 1.78e- 5   0.436      0.832 Pearson
#>  5 mpg   wt    -0.87     -9.56 1.29e-10  -0.934     -0.744 Pearson
#>  6 mpg   qsec   0.42      2.53 1.71e- 2   0.0820     0.670 Pearson
#>  7 disp  mpg   -0.85     -8.75 9.38e-10  -0.923     -0.708 Pearson
#>  8 disp  disp   1       Inf    0.         1          1     Pearson
#>  9 disp  hp     0.79      7.08 7.14e- 8   0.611      0.893 Pearson
#> 10 disp  drat  -0.71     -5.53 5.28e- 6  -0.849     -0.481 Pearson
#> # … with 26 more rows
…
