Correlation Analysis • rstatix
…
Reshape correlation matrix as paired list

# Collapse the correlation matrix into long format
# ::::::::::::::::::::::::::::::::::::::::::::::::
long.format <- cor.mat %>% cor_gather()
long.format
#> # A tibble: 36 x 4
#>    var1  var2    cor        p
#>    <chr> <chr> <dbl>    <dbl>
#>  1 mpg   mpg    1    0.      
#>  2 disp  mpg   -0.85 9.40e-10
#>  3 hp    mpg   -0.78 1.80e- 7
#>  4 drat  mpg    0.68 1.80e- 5
#>  5 wt    mpg   -0.87 1.30e-10
#>  6 qsec  mpg    0.42 1.70e- 2
#>  7 mpg   disp  -0.85 9.40e-10
#>  8 disp  disp   1    0.      
#>  9 hp    disp   0.79 7.10e- 8
#> 10 drat  disp  -0.71 5.30e- 6
#> # … with 26 more rows
…
