Build Factorial Designs for ANOVA — factorial_design • rstatix
…
#> 6 10.0   VC  0.5  6
# Build factorial designs
design <- factorial_design(df, dv = len, wid = id, within = c(supp, dose))
design
#> $dv
#> [1] "len"
#> 
#> $wid
#> [1] "id"
#> 
#> $within
#> [1] "supp" "dose"
#> 
#> $data
#> # A tibble: 60 × 4
#>      len supp  dose  id   
#>    <dbl> <fct> <fct> <fct>
#>  1   4.2 VC    X0.5  1    
#>  2  11.5 VC    X0.5  2    
#>  3   7.3 VC    X0.5  3    
#>  4   5.8 VC    X0.5  4    
#>  5   6.4 VC    X0.5  5    
#>  6  10   VC    X0.5  6    
#>  7  11.2 VC    X0.5  7    
#>  8  11.2 VC    X0.5  8    
#>  9   5.2 VC    X0.5  9    
#> 10   7   VC    X0.5  10   
#> # … with 50 more rows
…
# Build factorial designs
df$id <- 1:nrow(df)
design <- factorial_design(df, dv = len, wid = id, between = c(supp, dose))
design
#> $dv
#> [1] "len"
#> 
#> $between
#> [1] "supp" "dose"
#> 
#> $wid
#> [1] "id"
#> 
#> $data
#> # A tibble: 60 × 4
#>      len supp  dose  id   
#>    <dbl> <fct> <fct> <fct>
#>  1   4.2 VC    0.5   1    
#>  2  11.5 VC    0.5   2    
#>  3   7.3 VC    0.5   3    
#>  4   5.8 VC    0.5   4    
#>  5   6.4 VC    0.5   5    
#>  6  10   VC    0.5   6    
#>  7  11.2 VC    0.5   7    
#>  8  11.2 VC    0.5   8    
#>  9   5.2 VC    0.5   9    
#> 10   7   VC    0.5   10   
#> # … with 50 more rows
#> 
#> $lm_data
#> # A tibble: 60 × 4
#>      len supp  dose  id   
#>    <dbl> <fct> <fct> <fct>
#>  1   4.2 VC    0.5   1    
#>  2  11.5 VC    0.5   2    
#>  3   7.3 VC    0.5   3    
#>  4   5.8 VC    0.5   4    
#>  5   6.4 VC    0.5   5    
#>  6  10   VC    0.5   6    
#>  7  11.2 VC    0.5   7    
#>  8  11.2 VC    0.5   8    
#>  9   5.2 VC    0.5   9    
#> 10   7   VC    0.5   10   
#> # … with 50 more rows
…
