Compute Mahalanobis Distance and Flag Multivariate Outliers — mahalanobis_distance • rstatix
…
    Value

    Returns the input data frame with two additional columns: 1)
 "mahal.dist": Mahalanobis distance values; and 2) "is.outlier": logical
 values specifying whether a given observation is a multivariate outlier

    Examples

# Compute mahalonobis distance and flag outliers if any
iris %>%
  doo(~mahalanobis_distance(.))
#> # A tibble: 150 x 6
#>    Sepal.Length Sepal.Width Petal.Length Petal.Width mahal.dist is.outlier
#>           <dbl>       <dbl>        <dbl>       <dbl>      <dbl> <lgl>     
#>  1          5.1         3.5          1.4         0.2       2.13 FALSE     
#>  2          4.9         3            1.4         0.2       2.85 FALSE     
#>  3          4.7         3.2          1.3         0.2       2.08 FALSE     
#>  4          4.6         3.1          1.5         0.2       2.45 FALSE     
#>  5          5           3.6          1.4         0.2       2.46 FALSE     
#>  6          5.4         3.9          1.7         0.4       3.88 FALSE     
#>  7          4.6         3.4          1.4         0.3       2.86 FALSE     
#>  8          5           3.4          1.5         0.2       1.83 FALSE     
#>  9          4.4         2.9          1.4         0.2       3.38 FALSE     
#> 10          4.9         3.1          1.5         0.1       2.38 FALSE     
#> # … with 140 more rows
…
